{
  "project_info": {
    "project_number": "10177560301",
    "project_id": "tesmbl-ccac4",
    "storage_bucket": "tesmbl-ccac4.appspot.com"
  },
  "client": [
    {
      "client_info": {
        "mobilesdk_app_id": "1:10177560301:android:10ed6f22388286095d96e4",
        "android_client_info": {
          "package_name": "com.example.minggu_11"
        }
      },
      "oauth_client": [
        {
          "client_id": "10177560301-3mk2re8mnr05hq6isklfu00l7cbm6htt.apps.googleusercontent.com",
          "client_type": 3
        }
      ],
      "api_key": [
        {
          "current_key": "AIzaSyD5yRBliDT6N-VfSuKo7GNVjsOsEtZWsCE"
        }
      ],
      "services": {
        "appinvite_service": {
          "other_platform_oauth_client": [
            {
              "client_id": "10177560301-3mk2re8mnr05hq6isklfu00l7cbm6htt.apps.googleusercontent.com",
              "client_type": 3
            }
          ]
        }
      }
    }
  ],
  "configuration_version": "1"
}